{
    "at_ectr_criteria.json": {
        "hash": "cfe4a13974e70447967f6e86d1194294"
    },
    "at_ectr_state.json": {
        "hash": "44de0d79402e8a1c8cf4a5a2ed9d4563"
    },
    "at_ectr_time.json": {
        "hash": "47a69330960b9dce5b0d10d0cc66fe49"
    }
}